[
  {
    "id": "src.main",
    "name": "main",
    "stats": {
      "size": 7898,
      "gzipSize": 2845
    }
  },
  {
    "id": "node_modules.main",
    "name": "node_modules [main]",
    "stats": {
      "size": 184081,
      "gzipSize": 53517
    }
  },
  {
    "id": "atlaskit.core.main",
    "name": "main",
    "stats": {
      "size": 110957,
      "gzipSize": 26984
    }
  },
  {
    "id": "combined.main",
    "name": "main",
    "stats": {
      "size": 299031,
      "gzipSize": 81784
    }
  }
]