[
  {
    "id": "src.main",
    "name": "main",
    "stats": {
      "size": 58818,
      "gzipSize": 15937
    }
  },
  {
    "id": "node_modules.main",
    "name": "node_modules [main]",
    "stats": {
      "size": 94987,
      "gzipSize": 28058
    }
  },
  {
    "id": "atlaskit.core.main",
    "name": "main",
    "stats": {
      "size": 72906,
      "gzipSize": 19758
    }
  },
  {
    "id": "atlaskit.elements.main",
    "name": "main",
    "stats": {
      "size": 900,
      "gzipSize": 450
    }
  },
  {
    "id": "combined.main",
    "name": "main",
    "stats": {
      "size": 224248,
      "gzipSize": 62424
    }
  }
]