[
  {
    "id": "src.main",
    "name": "main",
    "stats": {
      "size": 6268,
      "gzipSize": 2280
    }
  },
  {
    "id": "src.async",
    "name": "async",
    "stats": {
      "size": 44662,
      "gzipSize": 10687
    }
  },
  {
    "id": "node_modules.main",
    "name": "node_modules [main]",
    "stats": {
      "size": 6367,
      "gzipSize": 2289
    }
  },
  {
    "id": "node_modules.async",
    "name": "node_modules [async]",
    "stats": {
      "size": 1490486,
      "gzipSize": 422180
    }
  },
  {
    "id": "atlaskit.core.main",
    "name": "main",
    "stats": {
      "size": 24464,
      "gzipSize": 6647
    }
  },
  {
    "id": "atlaskit.core.async",
    "name": "async",
    "stats": {
      "size": 104132,
      "gzipSize": 23911
    }
  },
  {
    "id": "atlaskit.media.main",
    "name": "main",
    "stats": {
      "size": 1149,
      "gzipSize": 530
    }
  },
  {
    "id": "atlaskit.media.async",
    "name": "async",
    "stats": {
      "size": 228445,
      "gzipSize": 55408
    }
  },
  {
    "id": "combined.main",
    "name": "main",
    "stats": {
      "size": 37663,
      "gzipSize": 10626
    }
  },
  {
    "id": "combined.async",
    "name": "async",
    "stats": {
      "size": 1865815,
      "gzipSize": 511958
    }
  }
]