[
  {
    "id": "src.main",
    "name": "main",
    "stats": {
      "size": 6251,
      "gzipSize": 2105
    }
  },
  {
    "id": "node_modules.main",
    "name": "node_modules [main]",
    "stats": {
      "size": 1890,
      "gzipSize": 684
    }
  },
  {
    "id": "combined.main",
    "name": "main",
    "stats": {
      "size": 7527,
      "gzipSize": 2337
    }
  }
]