[
  {
    "id": "src.main",
    "name": "main",
    "stats": {
      "size": 32842,
      "gzipSize": 5897
    }
  },
  {
    "id": "node_modules.main",
    "name": "node_modules [main]",
    "stats": {
      "size": 69046,
      "gzipSize": 22612
    }
  },
  {
    "id": "atlaskit.core.main",
    "name": "main",
    "stats": {
      "size": 2116,
      "gzipSize": 756
    }
  },
  {
    "id": "combined.main",
    "name": "main",
    "stats": {
      "size": 103114,
      "gzipSize": 28442
    }
  }
]