[
  {
    "id": "src.main",
    "name": "main",
    "stats": {
      "size": 44642,
      "gzipSize": 17272
    }
  },
  {
    "id": "node_modules.main",
    "name": "node_modules [main]",
    "stats": {
      "size": 211479,
      "gzipSize": 61519
    }
  },
  {
    "id": "atlaskit.core.main",
    "name": "main",
    "stats": {
      "size": 121106,
      "gzipSize": 30569
    }
  },
  {
    "id": "atlaskit.help.main",
    "name": "main",
    "stats": {
      "size": 31379,
      "gzipSize": 5227
    }
  },
  {
    "id": "atlaskit.search.main",
    "name": "main",
    "stats": {
      "size": 19102,
      "gzipSize": 4855
    }
  },
  {
    "id": "combined.main",
    "name": "main",
    "stats": {
      "size": 421631,
      "gzipSize": 115258
    }
  }
]